Final-Project - Data Wrangling and Modeling
…
kmeans_tuned_fv <- tune_cluster(kmeans_wflow_fv,
                                resamples = fv_kfold_tidy,
                                metrics = cluster_metric_set(sse_total, 
                                                             sse_within_total, sse_ratio),
                                grid = nclusters_grid)

tuned_metrics <- collect_metrics(kmeans_tuned_fv)

tuned_metrics |>
  arrange(desc(.metric), num_clusters) |>
  select(num_clusters, .metric, mean, everything())

# A tibble: 30 × 7
   num_clusters .metric           mean .estimator     n std_err .config         
          <int> <chr>            <dbl> <chr>      <int>   <dbl> <chr>           
 1            1 sse_within_total 8062. standard       5    2.31 Preprocessor1_M…
 2            2 sse_within_total 5998. standard       5   15.6  Preprocessor1_M…
 3            3 sse_within_total 5103. standard       5   15.1  Preprocessor1_M…
 4            4 sse_within_total 4612. standard       5    9.11 Preprocessor1_M…
 5            5 sse_within_total 4220. standard       5   11.4  Preprocessor1_M…
 6            6 sse_within_total 3954. standard       5   13.2  Preprocessor1_M…
 7            7 sse_within_total 3716. standard       5   12.1  Preprocessor1_M…
 8            8 sse_within_total 3547. standard       5   10.6  Preprocessor1_M…
 9            9 sse_within_total 3398. standard       5    9.50 Preprocessor1_M…
10           10 sse_within_total 3276. standard       5    8.32 Preprocessor1_M…
# ℹ 20 more rows
…
set.seed(1002) 
# always reset the seed before you re-fit, just in case something weird happens

kmeans_fv_fit3 <- kmeans_fv_3clusters |>
  fit(data = vg_train)

vg3 <- bind_cols(
  vg_train,
  kmeans_fv_fit3 |> extract_cluster_assignment())

vg3 |>
  select(Name, .cluster, everything())

# A tibble: 1,540 × 17
   Name          .cluster  Rank Platform Year  Genre Publisher NA_Sales EU_Sales
   <chr>         <fct>    <dbl> <fct>    <chr> <chr> <chr>        <dbl>    <dbl>
 1 NASCAR 99     Cluster…  1237 Sony     1998  Raci… Electron…     1.45     0.04
 2 WWE 2K15      Cluster…  1810 Sony     2014  Spor… Take-Two…     0.38     0.56
 3 ATV: Quad Po… Cluster…  1996 Sony     2000  Raci… Acclaim …     0.58     0.39
 4 Mortal Komba… Cluster…   916 Sony     2004  Figh… Midway G…     0.92     0.72
 5 Jet Moto      Cluster…   948 Sony     1996  Raci… Sony Com…     1.33     0.4 
 6 The Legend o… Cluster…   285 Nintendo 2011  Acti… Nintendo      2.14     1.2 
 7 Viva Pinata   Cluster…  1126 Microso… 2006  Simu… Microsof…     0.45     0.96
 8 Dead Space    Cluster…  1364 Microso… 2008  Acti… Electron…     0.89     0.4 
 9 Hey You, Pik… Cluster…   945 Nintendo 1998  Simu… Nintendo      0.83     0.06
10 Ace Combat 0… Cluster…   434 Sony     2001  Simu… Sony Com…     2.06     0.56
# ℹ 1,530 more rows
# ℹ 8 more variables: JP_Sales <dbl>, Other_Sales <dbl>, Global_Sales <dbl>,
#   log_sales <dbl>, NA_log_sales <dbl>, EU_log_sales <dbl>,
#   JP_log_sales <dbl>, OT_log_sales <dbl>
…
